Homework3
…
glass_data <- read_csv("https://www4.stat.ncsu.edu/~online/datasets/glass.data",
                       col_names = c("Id", "RI", "Na", "Mg", "Al", "Si", "K"
                                     , "Ca", "Ba", "Fe", "Type_of_glass"))

Rows: 214 Columns: 11
── Column specification ────────────────────────────────────────────────────────
Delimiter: ","
dbl (11): Id, RI, Na, Mg, Al, Si, K, Ca, Ba, Fe, Type_of_glass

ℹ Use `spec()` to retrieve the full column specification for this data.
ℹ Specify the column types or set `show_col_types = FALSE` to quiet this message.

glass_data

# A tibble: 214 × 11
      Id    RI    Na    Mg    Al    Si     K    Ca    Ba    Fe Type_of_glass
   <dbl> <dbl> <dbl> <dbl> <dbl> <dbl> <dbl> <dbl> <dbl> <dbl>         <dbl>
 1     1  1.52  13.6  4.49  1.1   71.8  0.06  8.75     0  0                1
 2     2  1.52  13.9  3.6   1.36  72.7  0.48  7.83     0  0                1
 3     3  1.52  13.5  3.55  1.54  73.0  0.39  7.78     0  0                1
 4     4  1.52  13.2  3.69  1.29  72.6  0.57  8.22     0  0                1
 5     5  1.52  13.3  3.62  1.24  73.1  0.55  8.07     0  0                1
 6     6  1.52  12.8  3.61  1.62  73.0  0.64  8.07     0  0.26             1
 7     7  1.52  13.3  3.6   1.14  73.1  0.58  8.17     0  0                1
 8     8  1.52  13.2  3.61  1.05  73.2  0.57  8.24     0  0                1
 9     9  1.52  14.0  3.58  1.37  72.1  0.56  8.3      0  0                1
10    10  1.52  13    3.6   1.36  73.0  0.57  8.4      0  0.11             1
# ℹ 204 more rows
…
glass_data |>
  mutate(Type_of_glass = factor(Type_of_glass, levels = 1:7, labels = 
                                  c("building_windows_float_processed",
                                    "building_windows_non_float_processed",
                                    "vehicle_windows_float_processed", 
                                    "vehicle_windows_non_float_processed",
                                    "containers", 
                                    "tableware", 
                                    "headlamps")))

# A tibble: 214 × 11
      Id    RI    Na    Mg    Al    Si     K    Ca    Ba    Fe Type_of_glass    
   <dbl> <dbl> <dbl> <dbl> <dbl> <dbl> <dbl> <dbl> <dbl> <dbl> <fct>            
 1     1  1.52  13.6  4.49  1.1   71.8  0.06  8.75     0  0    building_windows…
 2     2  1.52  13.9  3.6   1.36  72.7  0.48  7.83     0  0    building_windows…
 3     3  1.52  13.5  3.55  1.54  73.0  0.39  7.78     0  0    building_windows…
 4     4  1.52  13.2  3.69  1.29  72.6  0.57  8.22     0  0    building_windows…
 5     5  1.52  13.3  3.62  1.24  73.1  0.55  8.07     0  0    building_windows…
 6     6  1.52  12.8  3.61  1.62  73.0  0.64  8.07     0  0.26 building_windows…
 7     7  1.52  13.3  3.6   1.14  73.1  0.58  8.17     0  0    building_windows…
 8     8  1.52  13.2  3.61  1.05  73.2  0.57  8.24     0  0    building_windows…
 9     9  1.52  14.0  3.58  1.37  72.1  0.56  8.3      0  0    building_windows…
10    10  1.52  13    3.6   1.36  73.0  0.57  8.4      0  0.11 building_windows…
# ℹ 204 more rows

3. Continue your chain and keep only observations where the Fe variable is less than 0.2 and the Type of Glass is either “tableware” or “headlamp”.

glass_data |>
  mutate(Type_of_glass = factor(Type_of_glass, levels = 1:7, labels = 
                                  c("building_windows_float_processed",
                                    "building_windows_non_float_processed",
                                    "vehicle_windows_float_processed", 
                                    "vehicle_windows_non_float_processed",
                                    "containers", 
                                    "tableware", 
                                    "headlamps"))) |>
  filter (Fe < 0.2, Type_of_glass %in% c("tableware", "headlamps"))

# A tibble: 38 × 11
      Id    RI    Na    Mg    Al    Si     K    Ca    Ba    Fe Type_of_glass
   <dbl> <dbl> <dbl> <dbl> <dbl> <dbl> <dbl> <dbl> <dbl> <dbl> <fct>        
 1   177  1.52  14    2.39  1.56  72.4  0     9.57  0        0 tableware    
 2   178  1.52  13.8  2.41  1.19  72.8  0     9.77  0        0 tableware    
 3   179  1.52  14.5  2.24  1.62  72.4  0     9.26  0        0 tableware    
 4   180  1.52  14.1  2.19  1.66  72.7  0     9.32  0        0 tableware    
 5   181  1.51  14.4  1.74  1.54  74.6  0     7.59  0        0 tableware    
 6   182  1.52  15.0  0.78  1.74  72.5  0     9.95  0        0 tableware    
 7   183  1.52  14.2  0     2.09  72.7  0    10.9   0        0 tableware    
 8   184  1.52  14.6  0     0.56  73.5  0    11.2   0        0 tableware    
 9   185  1.51  17.4  0     0.34  75.4  0     6.65  0        0 tableware    
10   186  1.51  13.7  3.2   1.81  72.8  1.76  5.43  1.19     0 headlamps    
# ℹ 28 more rows
…
yeast_data

# A tibble: 1,484 × 10
   seq_name     mcg   gvh   alm   mit   erl   pox   vac   nuc class
   <chr>      <dbl> <dbl> <dbl> <dbl> <dbl> <dbl> <dbl> <dbl> <chr>
 1 ADT1_YEAST  0.58  0.61  0.47  0.13   0.5   0    0.48  0.22 MIT  
 2 ADT2_YEAST  0.43  0.67  0.48  0.27   0.5   0    0.53  0.22 MIT  
 3 ADT3_YEAST  0.64  0.62  0.49  0.15   0.5   0    0.53  0.22 MIT  
 4 AAR2_YEAST  0.58  0.44  0.57  0.13   0.5   0    0.54  0.22 NUC  
 5 AATM_YEAST  0.42  0.44  0.48  0.54   0.5   0    0.48  0.22 MIT  
 6 AATC_YEAST  0.51  0.4   0.56  0.17   0.5   0.5  0.49  0.22 CYT  
 7 ABC1_YEAST  0.5   0.54  0.48  0.65   0.5   0    0.53  0.22 MIT  
 8 BAF1_YEAST  0.48  0.45  0.59  0.2    0.5   0    0.58  0.34 NUC  
 9 ABF2_YEAST  0.55  0.5   0.66  0.36   0.5   0    0.49  0.22 MIT  
10 ABP1_YEAST  0.4   0.39  0.6   0.15   0.5   0    0.58  0.3  CYT  
# ℹ 1,474 more rows

2. Start a chain that removes the seq_name and nuc columns.

yeast_data |>
  select(-seq_name, -nuc)

# A tibble: 1,484 × 8
     mcg   gvh   alm   mit   erl   pox   vac class
   <dbl> <dbl> <dbl> <dbl> <dbl> <dbl> <dbl> <chr>
 1  0.58  0.61  0.47  0.13   0.5   0    0.48 MIT  
 2  0.43  0.67  0.48  0.27   0.5   0    0.53 MIT  
 3  0.64  0.62  0.49  0.15   0.5   0    0.53 MIT  
 4  0.58  0.44  0.57  0.13   0.5   0    0.54 NUC  
 5  0.42  0.44  0.48  0.54   0.5   0    0.48 MIT  
 6  0.51  0.4   0.56  0.17   0.5   0.5  0.49 CYT  
 7  0.5   0.54  0.48  0.65   0.5   0    0.53 MIT  
 8  0.48  0.45  0.59  0.2    0.5   0    0.58 NUC  
 9  0.55  0.5   0.66  0.36   0.5   0    0.49 MIT  
10  0.4   0.39  0.6   0.15   0.5   0    0.58 CYT  
# ℹ 1,474 more rows

3. Continue your chain to add columns corresponding to the mean and median of each numeric variable (mcg, gvh, alm, mit, erl, pox, and vac) at each class grouping (see the across() function as we did in the dplyr video!).

yeast_data |>
  select(-seq_name, -nuc) |>
  group_by(class) |>
  mutate(across(where(is.numeric), list(mean = mean, median = median), .names = "{.col}_{.fn}"))

# A tibble: 1,484 × 22
# Groups:   class [10]
     mcg   gvh   alm   mit   erl   pox   vac class mcg_mean mcg_median gvh_mean
   <dbl> <dbl> <dbl> <dbl> <dbl> <dbl> <dbl> <chr>    <dbl>      <dbl>    <dbl>
 1  0.58  0.61  0.47  0.13   0.5   0    0.48 MIT      0.521       0.51    0.533
 2  0.43  0.67  0.48  0.27   0.5   0    0.53 MIT      0.521       0.51    0.533
 3  0.64  0.62  0.49  0.15   0.5   0    0.53 MIT      0.521       0.51    0.533
 4  0.58  0.44  0.57  0.13   0.5   0    0.54 NUC      0.452       0.45    0.456
 5  0.42  0.44  0.48  0.54   0.5   0    0.48 MIT      0.521       0.51    0.533
 6  0.51  0.4   0.56  0.17   0.5   0.5  0.49 CYT      0.481       0.48    0.470
 7  0.5   0.54  0.48  0.65   0.5   0    0.53 MIT      0.521       0.51    0.533
 8  0.48  0.45  0.59  0.2    0.5   0    0.58 NUC      0.452       0.45    0.456
 9  0.55  0.5   0.66  0.36   0.5   0    0.49 MIT      0.521       0.51    0.533
10  0.4   0.39  0.6   0.15   0.5   0    0.58 CYT      0.481       0.48    0.470
# ℹ 1,474 more rows
# ℹ 11 more variables: gvh_median <dbl>, alm_mean <dbl>, alm_median <dbl>,
#   mit_mean <dbl>, mit_median <dbl>, erl_mean <dbl>, erl_median <dbl>,
#   pox_mean <dbl>, pox_median <dbl>, vac_mean <dbl>, vac_median <dbl>
…
- Download this file

- Place it in a folder you know (such as your working directory for your project)

- Import the data from the first sheet using the readxl package

- Print out the tibble (just call the object name)

library(readxl)
white_wine_data <- read_excel("white-wine.xlsx",
                              sheet = excel_sheets("white-wine.xlsx")[1])
white_wine_data

# A tibble: 4,898 × 12
   `fixed acidity` `volatile acidity` `citric acid` `residual sugar` chlorides
             <dbl>              <dbl>         <dbl>            <dbl>     <dbl>
 1               7               0.27          0.36             20.7     0.045
 2              63               0.3           0.34              1.6     0.049
 3              81               0.28          0.4               6.9     0.05 
 4              72               0.23          0.32              8.5     0.058
 5              72               0.23          0.32              8.5     0.058
 6              81               0.28          0.4               6.9     0.05 
 7              62               0.32          0.16              7       0.045
 8               7               0.27          0.36             20.7     0.045
 9              63               0.3           0.34              1.6     0.049
10              81               0.22          0.43              1.5     0.044
# ℹ 4,888 more rows
# ℹ 7 more variables: `free sulfur dioxide` <dbl>,
#   `total sulfur dioxide` <dbl>, density <dbl>, pH <dbl>, sulphates <dbl>,
#   alcohol <dbl>, quality <dbl>

2. When you print the data set out to the console, you may notice that some of the variable names are surrounded by backticks. This is because they are non-standard (they include a space in them). We can rename them in a number of ways. We’ll do it by reading in the variable names from the 2nd sheet of the same file.

- Read in the data from the 2nd sheet. This should return a data frame with one column containing alternative versions of the variable names.

- Grab that column and overwrite the current column names (colnames()) of your white wine tibble.

variable_names <- read_excel("white-wine.xlsx",
                              sheet = excel_sheets("white-wine.xlsx")[2])
colnames(white_wine_data) <- as.character(variable_names$Variables)
white_wine_data

# A tibble: 4,898 × 12
   fixed_acidity volatile_acidity citric_acid residual_sugar chlorides
           <dbl>            <dbl>       <dbl>          <dbl>     <dbl>
 1             7             0.27        0.36           20.7     0.045
 2            63             0.3         0.34            1.6     0.049
 3            81             0.28        0.4             6.9     0.05 
 4            72             0.23        0.32            8.5     0.058
 5            72             0.23        0.32            8.5     0.058
 6            81             0.28        0.4             6.9     0.05 
 7            62             0.32        0.16            7       0.045
 8             7             0.27        0.36           20.7     0.045
 9            63             0.3         0.34            1.6     0.049
10            81             0.22        0.43            1.5     0.044
# ℹ 4,888 more rows
# ℹ 7 more variables: free_sulfur_dioxide <dbl>, total_sulfur_dioxide <dbl>,
#   density <dbl>, pH <dbl>, sulphates <dbl>, alcohol <dbl>, quality <dbl>

3. Lastly, add a column to this data set to indicate the wines are white. That is, add a column that has values of ‘white’ for every observation.

white_wine_data <- white_wine_data |>
  mutate(type = "white")
white_wine_data

# A tibble: 4,898 × 13
   fixed_acidity volatile_acidity citric_acid residual_sugar chlorides
           <dbl>            <dbl>       <dbl>          <dbl>     <dbl>
 1             7             0.27        0.36           20.7     0.045
 2            63             0.3         0.34            1.6     0.049
 3            81             0.28        0.4             6.9     0.05 
 4            72             0.23        0.32            8.5     0.058
 5            72             0.23        0.32            8.5     0.058
 6            81             0.28        0.4             6.9     0.05 
 7            62             0.32        0.16            7       0.045
 8             7             0.27        0.36           20.7     0.045
 9            63             0.3         0.34            1.6     0.049
10            81             0.22        0.43            1.5     0.044
# ℹ 4,888 more rows
# ℹ 8 more variables: free_sulfur_dioxide <dbl>, total_sulfur_dioxide <dbl>,
#   density <dbl>, pH <dbl>, sulphates <dbl>, alcohol <dbl>, quality <dbl>,
#   type <chr>
…
ℹ Using "','" as decimal and "'.'" as grouping mark. Use `read_delim()` for more control.

Warning: One or more parsing issues, call `problems()` on your data frame for details,
e.g.:
  dat <- vroom(...)
  problems(dat)

colnames(red_wine_data) <- as.character(variable_names$Variables)
red_wine_data <- red_wine_data |>
  mutate(type = "red")
red_wine_data 

# A tibble: 1,599 × 13
   fixed_acidity volatile_acidity citric_acid residual_sugar chlorides
           <dbl>            <dbl>       <dbl>          <dbl>     <dbl>
 1            NA               NA           0             NA        NA
 2            NA               NA           0             NA        NA
 3            NA               NA          NA             NA        NA
 4            NA               NA          NA             NA        NA
 5            NA               NA           0             NA        NA
 6            NA               NA           0             NA        NA
 7            NA               NA          NA             NA        NA
 8            NA               NA           0             NA        NA
 9            NA               NA          NA              2        NA
10            NA               NA          NA             NA        NA
# ℹ 1,589 more rows
# ℹ 8 more variables: free_sulfur_dioxide <dbl>, total_sulfur_dioxide <dbl>,
#   density <dbl>, pH <dbl>, sulphates <dbl>, alcohol <dbl>, quality <dbl>,
#   type <chr>

5. Combine these two data sets into one data set. They both have the exact same columns so this is an easy append task!

- Use the dplyr::bind_rows() function (see the help) to create one tibble containing all of the wine data.

wine_data <- bind_rows(white_wine_data, red_wine_data)
wine_data

# A tibble: 6,497 × 13
   fixed_acidity volatile_acidity citric_acid residual_sugar chlorides
           <dbl>            <dbl>       <dbl>          <dbl>     <dbl>
 1             7             0.27        0.36           20.7     0.045
 2            63             0.3         0.34            1.6     0.049
 3            81             0.28        0.4             6.9     0.05 
 4            72             0.23        0.32            8.5     0.058
 5            72             0.23        0.32            8.5     0.058
 6            81             0.28        0.4             6.9     0.05 
 7            62             0.32        0.16            7       0.045
 8             7             0.27        0.36           20.7     0.045
 9            63             0.3         0.34            1.6     0.049
10            81             0.22        0.43            1.5     0.044
# ℹ 6,487 more rows
# ℹ 8 more variables: free_sulfur_dioxide <dbl>, total_sulfur_dioxide <dbl>,
#   density <dbl>, pH <dbl>, sulphates <dbl>, alcohol <dbl>, quality <dbl>,
#   type <chr>

6. Start a chain on your new combined data object to filter the data to only look at high-quality wines (quality > 6.5) and wines that have a reasonable alcohol value (alcohol < 132).

white_wine_data |> 
  filter(quality > 6.5, alcohol < 132)

# A tibble: 989 × 13
   fixed_acidity volatile_acidity citric_acid residual_sugar chlorides
           <dbl>            <dbl>       <dbl>          <dbl>     <dbl>
 1            66             0.16        0.4             1.5     0.044
 2            66             0.17        0.38            1.5     0.032
 3            62             0.66        0.48            1.2     0.029
 4            62             0.66        0.48            1.2     0.029
 5            64             0.31        0.38            2.9     0.038
 6            68             0.26        0.42            1.7     0.049
 7            72             0.32        0.36            2       0.033
 8            74             0.18        0.31            1.4     0.058
 9            66             0.25        0.29            1.1     0.068
10            62             0.16        0.33            1.1     0.057
# ℹ 979 more rows
# ℹ 8 more variables: free_sulfur_dioxide <dbl>, total_sulfur_dioxide <dbl>,
#   density <dbl>, pH <dbl>, sulphates <dbl>, alcohol <dbl>, quality <dbl>,
#   type <chr>

7. Continue your chain to now sort the data from highest quality to lowest.

white_wine_data |> 
  filter(quality > 6.5, alcohol < 132) |>
  arrange(desc(quality))

# A tibble: 989 × 13
   fixed_acidity volatile_acidity citric_acid residual_sugar chlorides
           <dbl>            <dbl>       <dbl>          <dbl>     <dbl>
 1            91             0.27        0.45           10.6     0.035
 2            66             0.36        0.29            1.6     0.021
 3            74             0.24        0.36            2       0.031
 4            69             0.36        0.34            4.2     0.018
 5            71             0.26        0.49            2.2     0.032
 6            62             0.66        0.48            1.2     0.029
 7            62             0.66        0.48            1.2     0.029
 8            68             0.26        0.42            1.7     0.049
 9            67             0.23        0.31            2.1     0.046
10            67             0.23        0.31            2.1     0.046
# ℹ 979 more rows
# ℹ 8 more variables: free_sulfur_dioxide <dbl>, total_sulfur_dioxide <dbl>,
#   density <dbl>, pH <dbl>, sulphates <dbl>, alcohol <dbl>, quality <dbl>,
#   type <chr>

8. Continue your chain to select only the variables that contain acid, the alcohol variable, the type variable, and the quality variable.

white_wine_data |> 
  filter(quality > 6.5, alcohol < 132) |>
  arrange(desc(quality)) |>
  select(contains("acid"), alcohol, type, quality)

# A tibble: 989 × 6
   fixed_acidity volatile_acidity citric_acid alcohol type  quality
           <dbl>            <dbl>       <dbl>   <dbl> <chr>   <dbl>
 1            91             0.27        0.45     104 white       9
 2            66             0.36        0.29     124 white       9
 3            74             0.24        0.36     125 white       9
 4            69             0.36        0.34     127 white       9
 5            71             0.26        0.49     129 white       9
 6            62             0.66        0.48     128 white       8
 7            62             0.66        0.48     128 white       8
 8            68             0.26        0.42     105 white       8
 9            67             0.23        0.31     107 white       8
10            67             0.23        0.31     107 white       8
# ℹ 979 more rows
…
